%YAML 1.1
%TAG !u! tag:unity3d.com,2011:
--- !u!114 &11400000
MonoBehaviour:
  m_ObjectHideFlags: 0
  m_CorrespondingSourceObject: {fileID: 0}
  m_PrefabInstance: {fileID: 0}
  m_PrefabAsset: {fileID: 0}
  m_GameObject: {fileID: 0}
  m_Enabled: 1
  m_EditorHideFlags: 0
  m_Script: {fileID: 11500000, guid: 98801712ab9ac4b4081b8b0c3414713d, type: 3}
  m_Name: Wine
  m_EditorClassIdentifier: 
  title: "\u5564\u9152"
  description: "\u4E00\u74F6\u5B8C\u597D\u7684\u5564\u9152"
  icon: {fileID: 21300000, guid: c40eac34067124a91a18cf3a3157f286, type: 3}
  stackable: 0
