%YAML 1.1
%TAG !u! tag:unity3d.com,2011:
--- !u!114 &11400000
MonoBehaviour:
  m_ObjectHideFlags: 0
  m_CorrespondingSourceObject: {fileID: 0}
  m_PrefabInstance: {fileID: 0}
  m_PrefabAsset: {fileID: 0}
  m_GameObject: {fileID: 0}
  m_Enabled: 1
  m_EditorHideFlags: 0
  m_Script: {fileID: 11500000, guid: 8de61c2329704ac0ac46aaf5bf1c7b2c, type: 3}
  m_Name: 1 3
  m_EditorClassIdentifier: 
  from: {fileID: 11400000, guid: 83f29940ba6514e5b80f8dbb125656dc, type: 2}
  message: "\u62C9\u6E05\u5355"
